{
 "add_total_row": 0, 
 "apply_user_permissions": 1, 
 "creation": "2020-03-12 12:28:28.002755", 
 "disabled": 0, 
 "docstatus": 0, 
 "doctype": "Report", 
 "idx": 0, 
 "is_standard": "Yes", 
 "modified": "2020-03-12 12:31:45.293205", 
 "modified_by": "Administrator", 
 "module": "Gaisano", 
 "name": "Over Stocked Items", 
 "owner": "Administrator", 
 "ref_doctype": "Item", 
 "report_name": "Over Stocked Items", 
 "report_type": "Script Report"
}