{
 "add_total_row": 0, 
 "apply_user_permissions": 1, 
 "creation": "2017-06-02 10:54:51.110882", 
 "disabled": 0, 
 "docstatus": 0, 
 "doctype": "Report", 
 "idx": 0, 
 "is_standard": "Yes", 
 "modified": "2017-06-02 11:16:40.058729", 
 "modified_by": "Administrator", 
 "module": "Gaisano", 
 "name": "Check PO Item Qty VS RR Delivered", 
 "owner": "Administrator", 
 "ref_doctype": "Integrated PO", 
 "report_name": "Check PO Item Qty VS RR Delivered", 
 "report_type": "Script Report"
}