{
 "add_total_row": 0, 
 "apply_user_permissions": 1, 
 "creation": "2017-06-14 16:17:21.832360", 
 "disabled": 0, 
 "docstatus": 0, 
 "doctype": "Report", 
 "idx": 0, 
 "is_standard": "Yes", 
 "modified": "2017-06-14 16:18:23.393472", 
 "modified_by": "Administrator", 
 "module": "Gaisano", 
 "name": "Item Sales and Movement Report", 
 "owner": "Administrator", 
 "ref_doctype": "Item", 
 "report_name": "Item Sales and Movement Report", 
 "report_type": "Script Report"
}