{
 "add_total_row": 0, 
 "apply_user_permissions": 1, 
 "creation": "2018-04-30 11:31:51.556285", 
 "disabled": 0, 
 "docstatus": 0, 
 "doctype": "Report", 
 "idx": 0, 
 "is_standard": "Yes", 
 "modified": "2018-05-04 10:47:30.396027", 
 "modified_by": "Administrator", 
 "module": "Gaisano", 
 "name": "Item Sales VS RR", 
 "owner": "Administrator", 
 "ref_doctype": "Item", 
 "report_name": "Item Sales VS RR", 
 "report_type": "Script Report"
}